no class,Command,Enchantment/Charm,,1,V,1”,"1 segment","1 round",Special,"One creature","This spell enables the cleric to issue a command of a
single word. The command must be uttered in a language which the spell
recipient is able to understand. The individual will obey to the best of his/her/its
ability only so long as the command is absolutely clear and unequivocal, i.e.
“Suicide!” could be a noun, so the creature would ignore the command. A
command to “Die!” would cause the recipient to fall in a faint or cataleptic state
for 1 round, but thereafter the creature would be alive and well. Typical
command words are: back, halt, flee, run, stop, fall, fly, go, leave, surrender,
sleep, rest, etc. Undead are not affected by a command. Creatures with
intelligence of 13 or more, and creatures with 6 or more hit dice (or experience
levels) are entitled to a saving throw versus magic. (Creatures with 13 or higher
intelligence and 6 hit dice/levels do not get 2 saving throws!)
"
no class,"Create Water",Alteration,reversible,1,"V, S, M",1”,"1 round",Permanent,None,"Up to 27 cubic feet","When the cleric casts a create water spell, four gallons
of water are generated for every level of experience of the caster, i.e. a 2nd level
cleric creates eight gallons of water, a 3rd level twelve gallons, a 4th level sixteen
gallons, etc. The water is clean and drinkable (it is just like rain water). Reversing
the spell, destroy water, obliterates without trace (such as vapor, mist, fog or
steam) a like quantity of water. Created water will last until normally used or
evaporated, spilled, etc. Water can be created or destroyed in an area as small
as will actually contain the liquid or in an area as large as 27 cubic feet (one
cubic yard). The spell requires at least a drop of water to create, or a pinch of
dust to destroy, water. Note that water cannot be created within a living thing.
"
no class,"Cure Light Wounds",Necromantic,reversible,1,"V, S",Touch,"5 segments",Permanent,None,"Character touched","Upon laying his or her hand upon a creature, the
cleric causes from 1 to 8 hit points of wound or other injury damage to the
creature’s body to be healed. This healing will not affect creatures without
corporeal bodies, nor will it cure wounds of creatures not living or those which
can be harmed only by iron, silver, and/or magical weapons. Its reverse, cause
light wounds, operates in the same manner; and if a person is avoiding this
touch, a melee combat “to hit” die is rolled to determine if the cleric’s hand
strikes the opponent and causes such a wound. Note that cured wounds are
permanent only insofar as the creature does not sustain further damage, and
that caused wounds will heal — or can be cured — just as any normal injury
will. Caused light wounds are 1 to 8 hit points of damage.
"
